{
  "personalClass":[
    {
      "id":0,
      "date":"2020-06-02",
      "list":[
        {
          "id":200,
          "startAt":"10:00",
          "endAt":"12:00",
          "instructor": {
            "id":0,
            "name": "김혜인",
            "image": "https://scontent-iad3-1.cdninstagram.com/v/t51.2885-15/sh0.08/e35/c0.180.1440.1440a/s640x640/82563024_648714682604182_1001099521422807199_n.jpg?_nc_ht=scontent-iad3-1.cdninstagram.com&_nc_cat=110&_nc_ohc=xTai3hSS9GEAX9kyDva&oh=eacc100c9bc5da330e23cddfdd30ddcd&oe=5F007088"
          },
          "isConfirmation":false
        }
      ]
    },
    {
      "id":1,
      "date":"2020-06-03",
      "list":[
      ]
    },
    {
      "id":2,
      "date":"2020-06-04",
      "list":[
        {
          "id":201,
          "startAt":"10:00",
          "endAt":"11:00",
          "instructor": {
            "id":2,
            "name": "강다연",
            "image": "https://encrypted-tbn0.gstatic.com/images?q=tbn%3AANd9GcTuajUXzSVg6u9Osypu9qxnQVQJeE-gioVNLEVj2aZ9ze4w3d9f&usqp=CAU"
          },
          "isConfirmation":false
        }
      ]
    },
    {
      "id":3,
      "date":"2020-06-05",
      "list":[
      ]
    },
    {
      "id":4,
      "date":"2020-06-06",
      "list":[
        {
          "id":202,
          "startAt":"10:00",
          "endAt":"11:00",
          "instructor": {
            "id":2,
            "name": "강다연",
            "image": "https://encrypted-tbn0.gstatic.com/images?q=tbn%3AANd9GcTuajUXzSVg6u9Osypu9qxnQVQJeE-gioVNLEVj2aZ9ze4w3d9f&usqp=CAU"
          },
          "isConfirmation":false
        }
      ]
    },
    {
      "id":5,
      "date":"2020-06-07",
      "list":[
      ]
    },
    {
      "id":6,
      "date":"2020-06-08",
      "list":[
        {
          "id":203,
          "startAt":"10:00",
          "endAt":"11:00",
          "instructor": {
            "id":2,
            "name": "강다연",
            "image": "https://encrypted-tbn0.gstatic.com/images?q=tbn%3AANd9GcTuajUXzSVg6u9Osypu9qxnQVQJeE-gioVNLEVj2aZ9ze4w3d9f&usqp=CAU"
          },
          "isConfirmation":false
        }
      ]
    },
    {
      "id":7,
      "date":"2020-06-09",
      "list":[
        {
          "id":204,
          "startAt":"10:00",
          "endAt":"11:00",
          "instructor": {
            "id":2,
            "name": "강다연",
            "image": "https://encrypted-tbn0.gstatic.com/images?q=tbn%3AANd9GcTuajUXzSVg6u9Osypu9qxnQVQJeE-gioVNLEVj2aZ9ze4w3d9f&usqp=CAU"
          },
          "isConfirmation":false
        }
      ]
    }
  ],




  "groupClass":[
    {
      "id":222,
      "date": "2020-06-02",
      "list": [
        {
          "id":100,
          "startAt":"10:00",
          "endAt":"11:00",
          "instructor": {
            "id":2,
            "name": "강다연",
            "image": "https://encrypted-tbn0.gstatic.com/images?q=tbn%3AANd9GcTuajUXzSVg6u9Osypu9qxnQVQJeE-gioVNLEVj2aZ9ze4w3d9f&usqp=CAU"
          },
          "type":{
              "id":2,
              "name":"폼롤러"
          },
          "capacity":8,
          "headcount":8,
          "isReservation":false,
          "isNotification":false
        },
        {
          "id":101,
          "startAt":"11:00",
          "endAt":"12:00",
          "instructor": {
            "id":2,
            "name": "강다연",
            "image": "https://encrypted-tbn0.gstatic.com/images?q=tbn%3AANd9GcTuajUXzSVg6u9Osypu9qxnQVQJeE-gioVNLEVj2aZ9ze4w3d9f&usqp=CAU"
          },
          "type":{
              "id":0,
              "name":"리포머"
            },
          "capacity":8,
          "headcount":2,
          "isReservation":true,
          "isNotification":false
        },
        {
          "id":102,
          "startAt":"13:00",
          "endAt":"14:00",
          "instructor": {
            "id":2,
            "name": "강다연",
            "image": "https://encrypted-tbn0.gstatic.com/images?q=tbn%3AANd9GcTuajUXzSVg6u9Osypu9qxnQVQJeE-gioVNLEVj2aZ9ze4w3d9f&usqp=CAU"
          },
          "type":{
              "id":1,
              "name":"체어"
          },
          "capacity":8,
          "headcount":4,
          "isReservation":false,
          "isNotification":false
        },
        {
          "id":103,
          "startAt":"14:00",
          "endAt":"15:00",
          "instructor": {
            "id":2,
            "name": "강다연",
            "image": "https://encrypted-tbn0.gstatic.com/images?q=tbn%3AANd9GcTuajUXzSVg6u9Osypu9qxnQVQJeE-gioVNLEVj2aZ9ze4w3d9f&usqp=CAU"
          },
          "type":{
              "id":3,
              "name":"배럴"
          },
          "capacity":8,
          "headcount":0,
          "isReservation":false,
          "isNotification":false
        },
        {
          "id":104,
          "startAt":"15:00",
          "endAt":"16:00",
          "instructor": {
            "id":2,
            "name": "강다연",
            "image": "https://encrypted-tbn0.gstatic.com/images?q=tbn%3AANd9GcTuajUXzSVg6u9Osypu9qxnQVQJeE-gioVNLEVj2aZ9ze4w3d9f&usqp=CAU"
          },
          "type":{
              "id":0,
              "name":"리포머"
            },
          "capacity":8,
          "headcount":0,
          "isReservation":false,
          "isNotification":false
        },
        {
          "id":105,
          "startAt":"16:00",
          "endAt":"17:00",
          "instructor": {
            "id":2,
            "name": "강다연",
            "image": "https://encrypted-tbn0.gstatic.com/images?q=tbn%3AANd9GcTuajUXzSVg6u9Osypu9qxnQVQJeE-gioVNLEVj2aZ9ze4w3d9f&usqp=CAU"
          },
          "type":{
              "id":0,
              "name":"리포머"
            },
          "capacity":8,
          "headcount":0,
          "isReservation":false,
          "isNotification":false
        },
        {
          "id":106,
          "startAt":"17:00",
          "endAt":"18:00",
          "instructor": {
            "id":2,
            "name": "강다연",
            "image": "https://encrypted-tbn0.gstatic.com/images?q=tbn%3AANd9GcTuajUXzSVg6u9Osypu9qxnQVQJeE-gioVNLEVj2aZ9ze4w3d9f&usqp=CAU"
          },
          "type":{
              "id":1,
              "name":"체어"
          },
          "capacity":8,
          "headcount":0
        }
      ]
    },
    {
      "id":223,
      "date": "2020-06-03",
      "list": [
        {
          "id":107,
          "startAt":"10:00",
          "endAt":"11:00",
          "instructor": {
            "id":0,
            "name": "김혜인",
            "image": "https://scontent-iad3-1.cdninstagram.com/v/t51.2885-15/sh0.08/e35/c0.180.1440.1440a/s640x640/82563024_648714682604182_1001099521422807199_n.jpg?_nc_ht=scontent-iad3-1.cdninstagram.com&_nc_cat=110&_nc_ohc=xTai3hSS9GEAX9kyDva&oh=eacc100c9bc5da330e23cddfdd30ddcd&oe=5F007088"
          },
          "type":{
              "id":2,
              "name":"폼롤러"
          },
          "capacity":8,
          "headcount":0,
          "isReservation":false,
          "isNotification":false
        },
        {
          "id":108,
          "startAt":"11:00",
          "endAt":"12:00",
          "instructor": {
            "id":0,
            "name": "김혜인",
            "image": "https://scontent-iad3-1.cdninstagram.com/v/t51.2885-15/sh0.08/e35/c0.180.1440.1440a/s640x640/82563024_648714682604182_1001099521422807199_n.jpg?_nc_ht=scontent-iad3-1.cdninstagram.com&_nc_cat=110&_nc_ohc=xTai3hSS9GEAX9kyDva&oh=eacc100c9bc5da330e23cddfdd30ddcd&oe=5F007088"
          },
          "type":{
              "id":0,
              "name":"리포머"
            },
          "capacity":8,
          "headcount":0,
          "isReservation":false,
          "isNotification":false
        },
        {
          "id":109,
          "startAt":"13:00",
          "endAt":"14:00",
          "instructor": {
            "id":0,
            "name": "김혜인",
            "image": "https://scontent-iad3-1.cdninstagram.com/v/t51.2885-15/sh0.08/e35/c0.180.1440.1440a/s640x640/82563024_648714682604182_1001099521422807199_n.jpg?_nc_ht=scontent-iad3-1.cdninstagram.com&_nc_cat=110&_nc_ohc=xTai3hSS9GEAX9kyDva&oh=eacc100c9bc5da330e23cddfdd30ddcd&oe=5F007088"
          },
          "type":{
              "id":1,
              "name":"체어"
          },
          "capacity":8,
          "headcount":0,
          "isReservation":false,
          "isNotification":false
        },
        {
          "id":111,
          "startAt":"14:00",
          "endAt":"15:00",
          "instructor": {
            "id":0,
            "name": "김혜인",
            "image": "https://scontent-iad3-1.cdninstagram.com/v/t51.2885-15/sh0.08/e35/c0.180.1440.1440a/s640x640/82563024_648714682604182_1001099521422807199_n.jpg?_nc_ht=scontent-iad3-1.cdninstagram.com&_nc_cat=110&_nc_ohc=xTai3hSS9GEAX9kyDva&oh=eacc100c9bc5da330e23cddfdd30ddcd&oe=5F007088"
          },
          "type":{
              "id":3,
              "name":"배럴"
          },
          "capacity":8,
          "headcount":0,
          "isReservation":false,
          "isNotification":false
        },
        {
          "id":112,
          "startAt":"15:00",
          "endAt":"16:00",
          "instructor": {
            "id":0,
            "name": "김혜인",
            "image": "https://scontent-iad3-1.cdninstagram.com/v/t51.2885-15/sh0.08/e35/c0.180.1440.1440a/s640x640/82563024_648714682604182_1001099521422807199_n.jpg?_nc_ht=scontent-iad3-1.cdninstagram.com&_nc_cat=110&_nc_ohc=xTai3hSS9GEAX9kyDva&oh=eacc100c9bc5da330e23cddfdd30ddcd&oe=5F007088"
          },
          "type":{
              "id":0,
              "name":"리포머"
            },
          "capacity":8,
          "headcount":0,
          "isReservation":false,
          "isNotification":false
        },
        {
          "id":113,
          "startAt":"16:00",
          "endAt":"17:00",
          "instructor": {
            "id":0,
            "name": "김혜인",
            "image": "https://scontent-iad3-1.cdninstagram.com/v/t51.2885-15/sh0.08/e35/c0.180.1440.1440a/s640x640/82563024_648714682604182_1001099521422807199_n.jpg?_nc_ht=scontent-iad3-1.cdninstagram.com&_nc_cat=110&_nc_ohc=xTai3hSS9GEAX9kyDva&oh=eacc100c9bc5da330e23cddfdd30ddcd&oe=5F007088"
          },
          "type":{
              "id":0,
              "name":"리포머"
            },
          "capacity":8,
          "headcount":0,
          "isReservation":false,
          "isNotification":false
        },
        {
          "id":114,
          "startAt":"17:00",
          "endAt":"18:00",
          "instructor": {
            "id":0,
            "name": "김혜인",
            "image": "https://scontent-iad3-1.cdninstagram.com/v/t51.2885-15/sh0.08/e35/c0.180.1440.1440a/s640x640/82563024_648714682604182_1001099521422807199_n.jpg?_nc_ht=scontent-iad3-1.cdninstagram.com&_nc_cat=110&_nc_ohc=xTai3hSS9GEAX9kyDva&oh=eacc100c9bc5da330e23cddfdd30ddcd&oe=5F007088"
          },
          "type":{
              "id":1,
              "name":"체어"
          },
          "capacity":8,
          "headcount":0
        }
      ]
    },
    {
      "id":224,
      "date": "2020-06-04",
      "list": [
        {
          "id":115,
          "startAt":"10:00",
          "endAt":"11:00",
          "instructor": {
            "id":1,
            "name": "주인영",
            "image": "https://encrypted-tbn0.gstatic.com/images?q=tbn%3AANd9GcTeYS4Bzn1CCHD2mKMvVzsVIYHW-lsr0lXhj52bdmH8KNtNrXz0&usqp=CAU"
          },
          "type":{
              "id":2,
              "name":"폼롤러"
          },
          "capacity":8,
          "headcount":0,
          "isReservation":false,
          "isNotification":false
        },
        {
          "id":116,
          "startAt":"11:00",
          "endAt":"12:00",
          "instructor": {
            "id":1,
            "name": "주인영",
            "image": "https://encrypted-tbn0.gstatic.com/images?q=tbn%3AANd9GcTeYS4Bzn1CCHD2mKMvVzsVIYHW-lsr0lXhj52bdmH8KNtNrXz0&usqp=CAU"
          },
          "type":{
              "id":0,
              "name":"리포머"
            },
          "capacity":8,
          "headcount":0,
          "isReservation":false,
          "isNotification":false
        },
        {
          "id":117,
          "startAt":"13:00",
          "endAt":"14:00",
          "instructor": {
            "id":1,
            "name": "주인영",
            "image": "https://encrypted-tbn0.gstatic.com/images?q=tbn%3AANd9GcTeYS4Bzn1CCHD2mKMvVzsVIYHW-lsr0lXhj52bdmH8KNtNrXz0&usqp=CAU"
          },
          "type":{
              "id":1,
              "name":"체어"
          },
          "capacity":8,
          "headcount":0,
          "isReservation":false,
          "isNotification":false
        },
        {
          "id":118,
          "startAt":"14:00",
          "endAt":"15:00",
          "instructor": {
            "id":1,
            "name": "주인영",
            "image": "https://encrypted-tbn0.gstatic.com/images?q=tbn%3AANd9GcTeYS4Bzn1CCHD2mKMvVzsVIYHW-lsr0lXhj52bdmH8KNtNrXz0&usqp=CAU"
          },
          "type":{
              "id":3,
              "name":"배럴"
          },
          "capacity":8,
          "headcount":0
        },
        {
          "id":119,
          "startAt":"15:00",
          "endAt":"16:00",
          "instructor": {
            "id":1,
            "name": "주인영",
            "image": "https://encrypted-tbn0.gstatic.com/images?q=tbn%3AANd9GcTeYS4Bzn1CCHD2mKMvVzsVIYHW-lsr0lXhj52bdmH8KNtNrXz0&usqp=CAU"
          },
          "type":{
              "id":0,
              "name":"리포머"
            },
          "capacity":8,
          "headcount":0,
          "isReservation":false,
          "isNotification":false
        },
        {
          "id":120,
          "startAt":"16:00",
          "endAt":"17:00",
          "instructor": {
            "id":1,
            "name": "주인영",
            "image": "https://encrypted-tbn0.gstatic.com/images?q=tbn%3AANd9GcTeYS4Bzn1CCHD2mKMvVzsVIYHW-lsr0lXhj52bdmH8KNtNrXz0&usqp=CAU"
          },
          "type":{
              "id":0,
              "name":"리포머"
            },
          "capacity":8,
          "headcount":0,
          "isReservation":false,
          "isNotification":false
        },
        {
          "id":121,
          "startAt":"17:00",
          "endAt":"18:00",
          "instructor": {
            "id":1,
            "name": "주인영",
            "image": "https://encrypted-tbn0.gstatic.com/images?q=tbn%3AANd9GcTeYS4Bzn1CCHD2mKMvVzsVIYHW-lsr0lXhj52bdmH8KNtNrXz0&usqp=CAU"
          },
          "type":{
              "id":1,
              "name":"체어"
          },
          "capacity":8,
          "headcount":0
        }
      ]
    },
    {
      "id":225,
      "date": "2020-06-05",
      "list": [
        {
          "id":122,
          "startAt":"10:00",
          "endAt":"11:00",
          "instructor": {
            "id":4,
            "name": "박슬기",
            "image": "https://encrypted-tbn0.gstatic.com/images?q=tbn%3AANd9GcQG6miT4rSS0Wl-Qjq1IyALU9LhpTmIjbbY0o-n8JT4XDBYURY6&usqp=CAU"
          },
          "type":{
              "id":2,
              "name":"폼롤러"
          },
          "capacity":8,
          "headcount":0,
          "isReservation":false,
          "isNotification":false
        },
        {
          "id":123,
          "startAt":"11:00",
          "endAt":"12:00",
          "instructor": {
            "id":4,
            "name": "박슬기",
            "image": "https://encrypted-tbn0.gstatic.com/images?q=tbn%3AANd9GcQG6miT4rSS0Wl-Qjq1IyALU9LhpTmIjbbY0o-n8JT4XDBYURY6&usqp=CAU"
          },
          "type":{
              "id":0,
              "name":"리포머"
            },
          "capacity":8,
          "headcount":0,
          "isReservation":false,
          "isNotification":false
        },
        {
          "id":124,
          "startAt":"13:00",
          "endAt":"14:00",
          "instructor": {
            "id":4,
            "name": "박슬기",
            "image": "https://encrypted-tbn0.gstatic.com/images?q=tbn%3AANd9GcQG6miT4rSS0Wl-Qjq1IyALU9LhpTmIjbbY0o-n8JT4XDBYURY6&usqp=CAU"
          },
          "type":{
              "id":1,
              "name":"체어"
          },
          "capacity":8,
          "headcount":0,
          "isReservation":false,
          "isNotification":false
        },
        {
          "id":125,
          "startAt":"14:00",
          "endAt":"15:00",
          "instructor": {
            "id":4,
            "name": "박슬기",
            "image": "https://encrypted-tbn0.gstatic.com/images?q=tbn%3AANd9GcQG6miT4rSS0Wl-Qjq1IyALU9LhpTmIjbbY0o-n8JT4XDBYURY6&usqp=CAU"
          },
          "type":{
              "id":3,
              "name":"배럴"
          },
          "capacity":8,
          "headcount":0,
          "isReservation":false,
          "isNotification":false
        },
        {
          "id":126,
          "startAt":"15:00",
          "endAt":"16:00",
          "instructor": {
            "id":4,
            "name": "박슬기",
            "image": "https://encrypted-tbn0.gstatic.com/images?q=tbn%3AANd9GcQG6miT4rSS0Wl-Qjq1IyALU9LhpTmIjbbY0o-n8JT4XDBYURY6&usqp=CAU"
          },
          "type":{
              "id":0,
              "name":"리포머"
            },
          "capacity":8,
          "headcount":0,
          "isReservation":false,
          "isNotification":false
        },
        {
          "id":127,
          "startAt":"16:00",
          "endAt":"17:00",
          "instructor": {
            "id":4,
            "name": "박슬기",
            "image": "https://encrypted-tbn0.gstatic.com/images?q=tbn%3AANd9GcQG6miT4rSS0Wl-Qjq1IyALU9LhpTmIjbbY0o-n8JT4XDBYURY6&usqp=CAU"
          },
          "type":{
              "id":0,
              "name":"리포머"
            },
          "capacity":8,
          "headcount":0,
          "isReservation":false,
          "isNotification":false
        },
        {
          "id":128,
          "startAt":"17:00",
          "endAt":"18:00",
          "instructor": {
            "id":4,
            "name": "박슬기",
            "image": "https://encrypted-tbn0.gstatic.com/images?q=tbn%3AANd9GcQG6miT4rSS0Wl-Qjq1IyALU9LhpTmIjbbY0o-n8JT4XDBYURY6&usqp=CAU"
          },
          "type":{
              "id":1,
              "name":"체어"
          },
          "capacity":8,
          "headcount":0
        }
      ]
    },
    {
      "id":226,
      "date": "2020-06-06",
      "list": [
        {
          "id":129,
          "startAt":"10:00",
          "endAt":"11:00",
          "instructor": {
            "id":3,
            "name": "임슬기",
            "image": "https://encrypted-tbn0.gstatic.com/images?q=tbn%3AANd9GcQ6wdqLx--dqbObcwHl5V1qbBRx4902qZgVzv-_pHw0VvOsNsvJ&usqp=CAU"
          },
          "type":{
              "id":2,
              "name":"폼롤러"
          },
          "capacity":8,
          "headcount":0,
          "isReservation":false,
          "isNotification":false
        },
        {
          "id":130,
          "startAt":"11:00",
          "endAt":"12:00",
          "instructor": {
            "id":3,
            "name": "임슬기",
            "image": "https://encrypted-tbn0.gstatic.com/images?q=tbn%3AANd9GcQ6wdqLx--dqbObcwHl5V1qbBRx4902qZgVzv-_pHw0VvOsNsvJ&usqp=CAU"
          },
          "type":{
              "id":0,
              "name":"리포머"
            },
          "capacity":8,
          "headcount":0,
          "isReservation":false,
          "isNotification":false
        },
        {
          "id":131,
          "startAt":"13:00",
          "endAt":"14:00",
          "instructor": {
            "id":3,
            "name": "임슬기",
            "image": "https://encrypted-tbn0.gstatic.com/images?q=tbn%3AANd9GcQ6wdqLx--dqbObcwHl5V1qbBRx4902qZgVzv-_pHw0VvOsNsvJ&usqp=CAU"
          },
          "type":{
              "id":1,
              "name":"체어"
          },
          "capacity":8,
          "headcount":0,
          "isReservation":false,
          "isNotification":false
        },
        {
          "id":132,
          "startAt":"14:00",
          "endAt":"15:00",
          "instructor": {
            "id":3,
            "name": "임슬기",
            "image": "https://encrypted-tbn0.gstatic.com/images?q=tbn%3AANd9GcQ6wdqLx--dqbObcwHl5V1qbBRx4902qZgVzv-_pHw0VvOsNsvJ&usqp=CAU"
          },
          "type":{
              "id":3,
              "name":"배럴"
          },
          "capacity":8,
          "headcount":0,
          "isReservation":false,
          "isNotification":false
        },
        {
          "id":133,
          "startAt":"15:00",
          "endAt":"16:00",
          "instructor": {
            "id":3,
            "name": "임슬기",
            "image": "https://encrypted-tbn0.gstatic.com/images?q=tbn%3AANd9GcQ6wdqLx--dqbObcwHl5V1qbBRx4902qZgVzv-_pHw0VvOsNsvJ&usqp=CAU"
          },
          "type":{
              "id":0,
              "name":"리포머"
            },
          "capacity":8,
          "headcount":0,
          "isReservation":false,
          "isNotification":false
        },
        {
          "id":134,
          "startAt":"16:00",
          "endAt":"17:00",
          "instructor": {
            "id":3,
            "name": "임슬기",
            "image": "https://encrypted-tbn0.gstatic.com/images?q=tbn%3AANd9GcQ6wdqLx--dqbObcwHl5V1qbBRx4902qZgVzv-_pHw0VvOsNsvJ&usqp=CAU"
          },
          "type":{
              "id":0,
              "name":"리포머"
            },
          "capacity":8,
          "headcount":0,
          "isReservation":false,
          "isNotification":false
        },
        {
          "id":135,
          "startAt":"17:00",
          "endAt":"18:00",
          "instructor": {
            "id":3,
            "name": "임슬기",
            "image": "https://encrypted-tbn0.gstatic.com/images?q=tbn%3AANd9GcQ6wdqLx--dqbObcwHl5V1qbBRx4902qZgVzv-_pHw0VvOsNsvJ&usqp=CAU"
          },
          "type":{
              "id":1,
              "name":"체어"
          },
          "capacity":8,
          "headcount":0
        }
      ]
    },
    {
      "id":227,
      "date": "2020-06-07",
      "list": [
        {
          "id":136,
          "startAt":"10:00",
          "endAt":"11:00",
          "instructor": {
            "id":2,
            "name": "강다연",
            "image": "https://encrypted-tbn0.gstatic.com/images?q=tbn%3AANd9GcTuajUXzSVg6u9Osypu9qxnQVQJeE-gioVNLEVj2aZ9ze4w3d9f&usqp=CAU"
          },
          "type":{
              "id":2,
              "name":"폼롤러"
          },
          "capacity":8,
          "headcount":0,
          "isReservation":false,
          "isNotification":false
        },
        {
          "id":137,
          "startAt":"11:00",
          "endAt":"12:00",
          "instructor": {
            "id":2,
            "name": "강다연",
            "image": "https://encrypted-tbn0.gstatic.com/images?q=tbn%3AANd9GcTuajUXzSVg6u9Osypu9qxnQVQJeE-gioVNLEVj2aZ9ze4w3d9f&usqp=CAU"
          },
          "type":{
              "id":0,
              "name":"리포머"
            },
          "capacity":8,
          "headcount":0,
          "isReservation":false,
          "isNotification":false
        },
        {
          "id":138,
          "startAt":"13:00",
          "endAt":"14:00",
          "instructor": {
            "id":2,
            "name": "강다연",
            "image": "https://encrypted-tbn0.gstatic.com/images?q=tbn%3AANd9GcTuajUXzSVg6u9Osypu9qxnQVQJeE-gioVNLEVj2aZ9ze4w3d9f&usqp=CAU"
          },
          "type":{
              "id":1,
              "name":"체어"
          },
          "capacity":8,
          "headcount":0,
          "isReservation":false,
          "isNotification":false
        },
        {
          "id":139,
          "startAt":"14:00",
          "endAt":"15:00",
          "instructor": {
            "id":2,
            "name": "강다연",
            "image": "https://encrypted-tbn0.gstatic.com/images?q=tbn%3AANd9GcTuajUXzSVg6u9Osypu9qxnQVQJeE-gioVNLEVj2aZ9ze4w3d9f&usqp=CAU"
          },
          "type":{
              "id":3,
              "name":"배럴"
          },
          "capacity":8,
          "headcount":0,
          "isReservation":false,
          "isNotification":false
        },
        {
          "id":140,
          "startAt":"15:00",
          "endAt":"16:00",
          "instructor": {
            "id":2,
            "name": "강다연",
            "image": "https://encrypted-tbn0.gstatic.com/images?q=tbn%3AANd9GcTuajUXzSVg6u9Osypu9qxnQVQJeE-gioVNLEVj2aZ9ze4w3d9f&usqp=CAU"
          },
          "type":{
              "id":0,
              "name":"리포머"
            },
          "capacity":8,
          "headcount":0,
          "isReservation":false,
          "isNotification":false
        },
        {
          "id":141,
          "startAt":"16:00",
          "endAt":"17:00",
          "instructor": {
            "id":2,
            "name": "강다연",
            "image": "https://encrypted-tbn0.gstatic.com/images?q=tbn%3AANd9GcTuajUXzSVg6u9Osypu9qxnQVQJeE-gioVNLEVj2aZ9ze4w3d9f&usqp=CAU"
          },
          "type":{
              "id":0,
              "name":"리포머"
            },
          "capacity":8,
          "headcount":0,
          "isReservation":false,
          "isNotification":false
        },
        {
          "id":142,
          "startAt":"17:00",
          "endAt":"18:00",
          "instructor": {
            "id":2,
            "name": "강다연",
            "image": "https://encrypted-tbn0.gstatic.com/images?q=tbn%3AANd9GcTuajUXzSVg6u9Osypu9qxnQVQJeE-gioVNLEVj2aZ9ze4w3d9f&usqp=CAU"
          },
          "type":{
              "id":1,
              "name":"체어"
          },
          "capacity":8,
          "headcount":0
        }
      ]
    },
    {
      "id":228,
      "date": "2020-06-08",
      "list": [
        {
          "id":143,
          "startAt":"10:00",
          "endAt":"11:00",
          "instructor": {
            "id":1,
            "name": "주인영",
            "image": "https://encrypted-tbn0.gstatic.com/images?q=tbn%3AANd9GcTeYS4Bzn1CCHD2mKMvVzsVIYHW-lsr0lXhj52bdmH8KNtNrXz0&usqp=CAU"
          },
          "type":{
              "id":2,
              "name":"폼롤러"
          },
          "capacity":8,
          "headcount":0,
          "isReservation":false,
          "isNotification":false
        },
        {
          "id":144,
          "startAt":"11:00",
          "endAt":"12:00",
          "instructor": {
            "id":1,
            "name": "주인영",
            "image": "https://encrypted-tbn0.gstatic.com/images?q=tbn%3AANd9GcTeYS4Bzn1CCHD2mKMvVzsVIYHW-lsr0lXhj52bdmH8KNtNrXz0&usqp=CAU"
          },
          "type":{
              "id":0,
              "name":"리포머"
            },
          "capacity":8,
          "headcount":0,
          "isReservation":false,
          "isNotification":false
        },
        {
          "id":145,
          "startAt":"13:00",
          "endAt":"14:00",
          "instructor": {
            "id":1,
            "name": "주인영",
            "image": "https://encrypted-tbn0.gstatic.com/images?q=tbn%3AANd9GcTeYS4Bzn1CCHD2mKMvVzsVIYHW-lsr0lXhj52bdmH8KNtNrXz0&usqp=CAU"
          },
          "type":{
              "id":1,
              "name":"체어"
          },
          "capacity":8,
          "headcount":0,
          "isReservation":false,
          "isNotification":false
        },
        {
          "id":146,
          "startAt":"14:00",
          "endAt":"15:00",
          "instructor": {
            "id":1,
            "name": "주인영",
            "image": "https://encrypted-tbn0.gstatic.com/images?q=tbn%3AANd9GcTeYS4Bzn1CCHD2mKMvVzsVIYHW-lsr0lXhj52bdmH8KNtNrXz0&usqp=CAU"
          },
          "type":{
              "id":3,
              "name":"배럴"
          },
          "capacity":8,
          "headcount":0,
          "isReservation":false,
          "isNotification":false
        },
        {
          "id":147,
          "startAt":"15:00",
          "endAt":"16:00",
          "instructor": {
            "id":1,
            "name": "주인영",
            "image": "https://encrypted-tbn0.gstatic.com/images?q=tbn%3AANd9GcTeYS4Bzn1CCHD2mKMvVzsVIYHW-lsr0lXhj52bdmH8KNtNrXz0&usqp=CAU"
          },
          "type":{
              "id":0,
              "name":"리포머"
            },
          "capacity":8,
          "headcount":0,
          "isReservation":false,
          "isNotification":false
        },
        {
          "id":148,
          "startAt":"16:00",
          "endAt":"17:00",
          "instructor": {
            "id":1,
            "name": "주인영",
            "image": "https://encrypted-tbn0.gstatic.com/images?q=tbn%3AANd9GcTeYS4Bzn1CCHD2mKMvVzsVIYHW-lsr0lXhj52bdmH8KNtNrXz0&usqp=CAU"
          },
          "type":{
              "id":0,
              "name":"리포머"
            },
          "capacity":8,
          "headcount":0,
          "isReservation":false,
          "isNotification":false
        },
        {
          "id":149,
          "startAt":"17:00",
          "endAt":"18:00",
          "instructor": {
            "id":1,
            "name": "주인영",
            "image": "https://encrypted-tbn0.gstatic.com/images?q=tbn%3AANd9GcTeYS4Bzn1CCHD2mKMvVzsVIYHW-lsr0lXhj52bdmH8KNtNrXz0&usqp=CAU"
          },
          "type":{
              "id":1,
              "name":"체어"
          },
          "capacity":8,
          "headcount":0
        }
      ]
    },
    {
      "id":229,
      "date": "2020-06-09",
      "list": [
        {
          "id":150,
          "startAt":"10:00",
          "endAt":"11:00",
          "instructor": {
            "id":0,
            "name": "김혜인",
            "image": "https://scontent-iad3-1.cdninstagram.com/v/t51.2885-15/sh0.08/e35/c0.180.1440.1440a/s640x640/82563024_648714682604182_1001099521422807199_n.jpg?_nc_ht=scontent-iad3-1.cdninstagram.com&_nc_cat=110&_nc_ohc=xTai3hSS9GEAX9kyDva&oh=eacc100c9bc5da330e23cddfdd30ddcd&oe=5F007088"
          },
          "type":{
              "id":2,
              "name":"폼롤러"
          },
          "capacity":8,
          "headcount":0,
          "isReservation":false,
          "isNotification":false
        },
        {
          "id":151,
          "startAt":"11:00",
          "endAt":"12:00",
          "instructor": {
            "id":0,
            "name": "김혜인",
            "image": "https://scontent-iad3-1.cdninstagram.com/v/t51.2885-15/sh0.08/e35/c0.180.1440.1440a/s640x640/82563024_648714682604182_1001099521422807199_n.jpg?_nc_ht=scontent-iad3-1.cdninstagram.com&_nc_cat=110&_nc_ohc=xTai3hSS9GEAX9kyDva&oh=eacc100c9bc5da330e23cddfdd30ddcd&oe=5F007088"
          },
          "type":{
              "id":0,
              "name":"리포머"
            },
          "capacity":8,
          "headcount":0,
          "isReservation":false,
          "isNotification":false
        },
        {
          "id":152,
          "startAt":"13:00",
          "endAt":"14:00",
          "instructor": {
            "id":0,
            "name": "김혜인",
            "image": "https://scontent-iad3-1.cdninstagram.com/v/t51.2885-15/sh0.08/e35/c0.180.1440.1440a/s640x640/82563024_648714682604182_1001099521422807199_n.jpg?_nc_ht=scontent-iad3-1.cdninstagram.com&_nc_cat=110&_nc_ohc=xTai3hSS9GEAX9kyDva&oh=eacc100c9bc5da330e23cddfdd30ddcd&oe=5F007088"
          },
          "type":{
              "id":1,
              "name":"체어"
          },
          "capacity":8,
          "headcount":0,
          "isReservation":false,
          "isNotification":false
        },
        {
          "id":153,
          "startAt":"14:00",
          "endAt":"15:00",
          "instructor": {
            "id":0,
            "name": "김혜인",
            "image": "https://scontent-iad3-1.cdninstagram.com/v/t51.2885-15/sh0.08/e35/c0.180.1440.1440a/s640x640/82563024_648714682604182_1001099521422807199_n.jpg?_nc_ht=scontent-iad3-1.cdninstagram.com&_nc_cat=110&_nc_ohc=xTai3hSS9GEAX9kyDva&oh=eacc100c9bc5da330e23cddfdd30ddcd&oe=5F007088"
          },
          "type":{
              "id":3,
              "name":"배럴"
          },
          "capacity":8,
          "headcount":0,
          "isReservation":false,
          "isNotification":false
        },
        {
          "id":154,
          "startAt":"15:00",
          "endAt":"16:00",
          "instructor": {
            "id":0,
            "name": "김혜인",
            "image": "https://scontent-iad3-1.cdninstagram.com/v/t51.2885-15/sh0.08/e35/c0.180.1440.1440a/s640x640/82563024_648714682604182_1001099521422807199_n.jpg?_nc_ht=scontent-iad3-1.cdninstagram.com&_nc_cat=110&_nc_ohc=xTai3hSS9GEAX9kyDva&oh=eacc100c9bc5da330e23cddfdd30ddcd&oe=5F007088"
          },
          "type":{
              "id":0,
              "name":"리포머"
            },
          "capacity":8,
          "headcount":0,
          "isReservation":false,
          "isNotification":false
        },
        {
          "id":155,
          "startAt":"16:00",
          "endAt":"17:00",
          "instructor": {
            "id":0,
            "name": "김혜인",
            "image": "https://scontent-iad3-1.cdninstagram.com/v/t51.2885-15/sh0.08/e35/c0.180.1440.1440a/s640x640/82563024_648714682604182_1001099521422807199_n.jpg?_nc_ht=scontent-iad3-1.cdninstagram.com&_nc_cat=110&_nc_ohc=xTai3hSS9GEAX9kyDva&oh=eacc100c9bc5da330e23cddfdd30ddcd&oe=5F007088"
          },
          "type":{
              "id":0,
              "name":"리포머"
            },
          "capacity":8,
          "headcount":0,
          "isReservation":false,
          "isNotification":false
        },
        {
          "id":156,
          "startAt":"17:00",
          "endAt":"18:00",
          "instructor": {
            "id":0,
            "name": "김혜인",
            "image": "https://scontent-iad3-1.cdninstagram.com/v/t51.2885-15/sh0.08/e35/c0.180.1440.1440a/s640x640/82563024_648714682604182_1001099521422807199_n.jpg?_nc_ht=scontent-iad3-1.cdninstagram.com&_nc_cat=110&_nc_ohc=xTai3hSS9GEAX9kyDva&oh=eacc100c9bc5da330e23cddfdd30ddcd&oe=5F007088"
          },
          "type":{
              "id":1,
              "name":"체어"
          },
          "capacity":8,
          "headcount":0
        }
      ]
    }
  ],
  "reservationDateList": {
    "dateList":[
      {
        "date":"2020-06-02",
        "reservationList":[
          {
            "time":"11:00",
            "type":{
              "id":0,
              "name":"리포머"
            }
          }
        ]
      },
      {
        "date":"2020-06-03",
        "reservationList":[]
      },
      {
        "date":"2020-06-04",
        "reservationList":[]
      },
      {
        "date":"2020-06-05",
        "reservationList":[
          {
            "time":"11:00",
            "type":{
              "id":0,
              "name":"리포머"
            }
          }
        ]
      },
      {
        "date":"2020-06-06",
        "reservationList":[
          {
            "time":"11:00",
            "type":{
              "id":0,
              "name":"리포머"
            }
          }
        ]
      },
      {
        "date":"2020-06-07",
        "reservationList":[]
      },
      {
        "date":"2020-06-08",
        "reservationList":[]
      },
      {
        "date":"2020-06-09",
        "reservationList":[
          {
            "time":"11:00",
            "type":{
              "id":0,
              "name":"리포머"
            }
          }
        ]
      }
    ]
  },
  "filter": {
    "instructorList":[
      {
        "id":0,
        "name": "김혜인",
        "image": "https://scontent-iad3-1.cdninstagram.com/v/t51.2885-15/sh0.08/e35/c0.180.1440.1440a/s640x640/82563024_648714682604182_1001099521422807199_n.jpg?_nc_ht=scontent-iad3-1.cdninstagram.com&_nc_cat=110&_nc_ohc=xTai3hSS9GEAX9kyDva&oh=eacc100c9bc5da330e23cddfdd30ddcd&oe=5F007088"
      },
      {
        "id":1,
        "name": "주인영",
        "image": "https://encrypted-tbn0.gstatic.com/images?q=tbn%3AANd9GcTeYS4Bzn1CCHD2mKMvVzsVIYHW-lsr0lXhj52bdmH8KNtNrXz0&usqp=CAU"
      },
      {
        "id":2,
        "name": "강다연",
        "image": "https://encrypted-tbn0.gstatic.com/images?q=tbn%3AANd9GcTuajUXzSVg6u9Osypu9qxnQVQJeE-gioVNLEVj2aZ9ze4w3d9f&usqp=CAU"
      },
      {
        "id":3,
        "name": "임슬기",
        "image": "https://encrypted-tbn0.gstatic.com/images?q=tbn%3AANd9GcQ6wdqLx--dqbObcwHl5V1qbBRx4902qZgVzv-_pHw0VvOsNsvJ&usqp=CAU"
      },
      {
        "id":4,
        "name": "박슬기",
        "image": "https://encrypted-tbn0.gstatic.com/images?q=tbn%3AANd9GcQG6miT4rSS0Wl-Qjq1IyALU9LhpTmIjbbY0o-n8JT4XDBYURY6&usqp=CAU"
      }
    ],
    "typeList":[
      {
        "id":0,
        "name":"리포머"
      },
      {
        "id":1,
        "name":"체어"
      },
      {
        "id":2,
        "name":"폼롤러"
      },
      {
        "id":3,
        "name":"배럴"
      }
    ]
  },

  "profile": {
    "name": "typicode"
  }
}